,0009104-T-,0007824--,0001172--,0001170--,0001169--
01/01/2019,,3.9,-3.0,3.1,-2.2
01/02/2019,,,-4.1,-4.0,-5.6
01/03/2019,,,-3.6,-6.8,-7.7
01/04/2019,,3.0,-3.4,-0.8,-1.6
01/05/2019,,,-3.4,-1.9,-6.1
01/06/2019,,,-3.3,-2.8,-2.5
01/07/2019,,,-3.3,-2.2,-2.8
01/08/2019,,,-2.7,-1.0,-3.6
01/09/2019,,,,,
01/10/2019,,,,,
01/11/2019,,,,,
01/12/2019,,,,,
